"hrsDH","PMax","degRatioEdge","degRatioCenter","elAreaRatio","fillFactor"
0,15.8784830282521,0.302965326656101,0.324771543404163,0.962635187978628,73.8603060765463
0,15.9028281645773,0.258278019044478,0.347934587799847,0.964979122823024,73.0710204156214
0,16.0035965025147,0.314513687821897,0.278730596359338,0.962583691197298,75.6837554139534
0,15.9535511449373,0.242681441324151,0.290654077695435,0.969126195188002,74.9830753100804
168,NA,0.274250497589907,0.333339436701122,0.963593545731799,74.5198162020457
168,NA,0.311565051496932,0.337888431155678,0.965125983411626,73.853060629224
168,NA,0.477210048823027,0.293199050263062,0.965893388244508,75.6899283389852
168,NA,0.264486933150479,0.36589087581476,0.971362824072146,75.3194051107458
336,15.2403652193564,0.358713681752196,0.328820486444866,0.96483542994811,74.6189103588175
336,15.1488132195382,0.305668766795467,0.286315282201744,0.964848414763436,73.8370321992747
336,15.422113214707,0.412700231788345,0.308528693454161,0.967321193916403,75.9657729083854
336,15.2478465518592,0.314917349614292,0.326139027149944,0.970803355808517,74.9635395940054
672,15.8877244751291,0.241865824877836,0.258660617568498,0.963736497936138,74.1137323951002
672,15.6024640093645,0.22530430350634,0.230745775805558,0.963928868567862,73.5694973906769
672,16.0239524955754,0.272335155518366,0.279919164047868,0.968428073004301,75.2811073767298
672,15.7807176618388,0.258747065795031,0.259851699282379,0.972465566463827,74.6312459638585
1008,15.9194121158477,0.320417277744749,0.400601272651236,0.965963290876651,74.0897653958848
1008,15.8735710407403,0.327837901214465,0.312795432031384,0.967877544465686,73.730226444099
1008,16.0341625825639,0.341932653121565,0.381465550766804,0.973040294423266,74.9029822976593
1008,15.7404012695639,0.316405451001282,0.358437436617169,0.980000835035378,74.0755156292598
2016,16.0268291071024,0.414494841747091,0.422200456542504,0.969969645693889,73.921630994111
2016,16.115870516395,0.438560657556671,0.417560640261874,0.97076582138245,74.4221109595113
2016,15.9766627141339,0.512109800492745,0.465517708974534,0.983371890335121,74.0009731031219
2016,15.740965615157,0.471512913677254,0.417773099131471,0.994157323343905,73.1885097657401
2904,15.0758529018335,0.522093617358901,0.501204368087327,0.982899495506285,73.4084545520359
2904,15.0895710201226,0.425265970870695,0.457051782361534,0.982505639746388,73.806570477892
2904,14.45424225902,0.50567684003179,0.493768536035381,1.02680242354548,73.4005425893422
2904,14.579844459289,0.435571366388912,0.510817884984238,1.00953419872976,71.6921624554821
3400,14.8616385254127,0.840570964833347,0.64157120886373,1.08662817393253,73.1255437236772
3400,14.4806384240967,0.596949887875866,0.517618663103232,1.06224535488457,71.9736999724966
3400,14.4005303572243,0.731469307107734,0.607605468550211,1.25253953459639,72.0455186827438
3400,14.132302601377,0.860538552935717,0.600431946897801,1.09744462283441,69.7561688450139
